…
xgb_grid <- grid_latin_hypercube(
  tree_depth(),
  min_n(),
  loss_reduction(),
  sample_size = sample_prop(),
  finalize(mtry(), vb_train),
  learn_rate(),
  size = 30 #can increase the size
)
xgb_grid

## # A tibble: 30 x 6
##    tree_depth min_n loss_reduction sample_size  mtry learn_rate
##         <int> <int>          <dbl>       <dbl> <int>      <dbl>
##  1         12    31       1.48e- 9     0.0817      9   6.92e- 3
##  2          8    20       6.66e- 9     0.0239      2   1.80e- 5
##  3          2     8       1.87e- 8     0.0204      6   1.89e- 3
##  4          7    29       6.13e- 1     0.0134      5   7.64e- 8
##  5          6     6       2.13e-10     0.0671      6   4.65e- 6
##  6          9     3       3.25e- 5     0.0415      9   4.92e- 9
##  7          3    24       1.43e+ 1     0.0791     10   1.34e- 9
##  8          2    16       1.21e- 3     0.00834    11   2.16e- 2
##  9          5    15       1.28e+ 0     0.0310      5   1.45e-10
## 10         11    38       2.07e- 2     0.00528     2   1.68e- 8
## #  with 20 more rows
…
