Palmer Penguins
…
Palmer Penguins

Inspired by Julia Silge

For this week's #TidyTuesday dataset, we'll be looking at [palmerpenguins] (https://allisonhorst.github.io/palmerpenguins/), Antarctic penguins who live on the Palmer Archipelago. More details on this dataset can be found on the [RStudio Education blog] (https://education.rstudio.com/blog/2020/07/palmerpenguins-cran/). We would like to come up with a model that predicts the [sex of the penguins] (https://github.com/rfordatascience/tidytuesday/blob/master/data/2020/2020-07-28/readme.md) using a classification model, based on the other observations in the dataset i.e. supervised learning. Let's now load the dataset from palmerpenguins package.

library(tidyverse)
library(palmerpenguins)

penguins

## # A tibble: 344 x 8
##    species island bill_length_mm bill_depth_mm flipper_length_ body_mass_g
##    <fct>   <fct>           <dbl>         <dbl>            <int>       <int>
##  1 Adelie  Torge           39.1          18.7              181        3750
##  2 Adelie  Torge           39.5          17.4              186        3800
##  3 Adelie  Torge           40.3          18                195        3250
##  4 Adelie  Torge           NA            NA                 NA          NA
##  5 Adelie  Torge           36.7          19.3              193        3450
##  6 Adelie  Torge           39.3          20.6              190        3650
##  7 Adelie  Torge           38.9          17.8              181        3625
##  8 Adelie  Torge           39.2          19.6              195        4675
##  9 Adelie  Torge           34.1          18.1              193        3475
## 10 Adelie  Torge           42            20.2              190        4250
## #  with 334 more rows, and 2 more variables: sex <fct>, year <int>
…
library(tidymodels)
set.seed(123)
penguin_split <- initial_split(penguins_df, strata = sex)
penguin_train <- training(penguin_split) 
penguin_test <- testing(penguin_split)

Secondly, we create bootstrap resamples of the training data for model evaluation.

set.seed(123)
penguin_bs <- bootstraps(penguin_train)
penguin_bs

## # Bootstrap sampling 
## # A tibble: 25 x 2
##    splits            id         
##    <list>            <chr>      
##  1 <split [250/87]>  Bootstrap01
##  2 <split [250/82]>  Bootstrap02
##  3 <split [250/95]>  Bootstrap03
##  4 <split [250/88]>  Bootstrap04
##  5 <split [250/92]>  Bootstrap05
##  6 <split [250/93]>  Bootstrap06
##  7 <split [250/101]> Bootstrap07
##  8 <split [250/91]>  Bootstrap08
##  9 <split [250/101]> Bootstrap09
## 10 <split [250/85]>  Bootstrap10
## #  with 15 more rows
…
Next, we'll add the models into the penguin_wf and then fit to each of the resamples. Let's start with the logistic regression model first.

glm_rs <- penguin_wf %>% 
  add_model(glm_spec) %>% 
  fit_resamples(
    resamples = penguin_bs,
    control = control_resamples(save_pred = TRUE)
  )

glm_rs

## # Bootstrap sampling 
## # A tibble: 25 x 5
##    splits           id          .metrics        .notes         .predictions     
##    <list>           <chr>       <list>          <list>         <list>           
##  1 <split [250/87]> Bootstrap01 <tibble [2  3 <tibble [1   <tibble [87  5]>
##  2 <split [250/82]> Bootstrap02 <tibble [2  3 <tibble [1   <tibble [82  5]>
##  3 <split [250/95]> Bootstrap03 <tibble [2  3 <tibble [1   <tibble [95  5]>
##  4 <split [250/88]> Bootstrap04 <tibble [2  3 <tibble [1   <tibble [88  5]>
##  5 <split [250/92]> Bootstrap05 <tibble [2  3 <tibble [1   <tibble [92  5]>
##  6 <split [250/93]> Bootstrap06 <tibble [2  3 <tibble [1   <tibble [93  5]>
##  7 <split [250/101 Bootstrap07 <tibble [2  3 <tibble [1   <tibble [101  5
##  8 <split [250/91]> Bootstrap08 <tibble [2  3 <tibble [1   <tibble [91  5]>
##  9 <split [250/101 Bootstrap09 <tibble [2  3 <tibble [1   <tibble [101  5
## 10 <split [250/85]> Bootstrap10 <tibble [2  3 <tibble [1   <tibble [85  5]>
## #  with 15 more rows

Now, we can fit the random forest model.

rf_rs <- penguin_wf %>% 
  add_model(rf_spec) %>% 
  fit_resamples(
    resamples = penguin_bs,
    control = control_resamples(save_pred = TRUE)
  )

rf_rs

## # Bootstrap sampling 
## # A tibble: 25 x 5
##    splits           id          .metrics        .notes         .predictions     
##    <list>           <chr>       <list>          <list>         <list>           
##  1 <split [250/87]> Bootstrap01 <tibble [2  3 <tibble [0   <tibble [87  5]>
##  2 <split [250/82]> Bootstrap02 <tibble [2  3 <tibble [0   <tibble [82  5]>
##  3 <split [250/95]> Bootstrap03 <tibble [2  3 <tibble [0   <tibble [95  5]>
##  4 <split [250/88]> Bootstrap04 <tibble [2  3 <tibble [0   <tibble [88  5]>
##  5 <split [250/92]> Bootstrap05 <tibble [2  3 <tibble [0   <tibble [92  5]>
##  6 <split [250/93]> Bootstrap06 <tibble [2  3 <tibble [0   <tibble [93  5]>
##  7 <split [250/101 Bootstrap07 <tibble [2  3 <tibble [0   <tibble [101  5
##  8 <split [250/91]> Bootstrap08 <tibble [2  3 <tibble [0   <tibble [91  5]>
##  9 <split [250/101 Bootstrap09 <tibble [2  3 <tibble [0   <tibble [101  5
## 10 <split [250/85]> Bootstrap10 <tibble [2  3 <tibble [0   <tibble [85  5]>
## #  with 15 more rows
…
